[gd_scene load_steps=7 format=2]

[ext_resource path="res://Enemies/Enemy.gd" type="Script" id=1]
[ext_resource path="res://CollisionBoxes/Hurtbox.tscn" type="PackedScene" id=2]
[ext_resource path="res://Enemies/EnemyStats.tscn" type="PackedScene" id=3]
[ext_resource path="res://CollisionBoxes/Hitbox.tscn" type="PackedScene" id=4]
[ext_resource path="res://CollisionBoxes/EnemyHitbox.gd" type="Script" id=5]
[ext_resource path="res://World/HealthBar.tscn" type="PackedScene" id=6]

[node name="Enemy" type="KinematicBody2D"]
collision_layer = 0
collision_mask = 258
script = ExtResource( 1 )

[node name="Sprite" type="Sprite" parent="."]

[node name="Collider" type="CollisionShape2D" parent="."]

[node name="AnimationPlayer" type="AnimationPlayer" parent="."]

[node name="Hurtbox" parent="." instance=ExtResource( 2 )]
collision_layer = 8

[node name="EnemyStats" parent="." instance=ExtResource( 3 )]

[node name="Hitbox" parent="." instance=ExtResource( 4 )]
collision_mask = 4
script = ExtResource( 5 )

[node name="HealthBar" parent="." instance=ExtResource( 6 )]
[connection signal="hit" from="Hurtbox" to="." method="_on_Hurtbox_hit"]
[connection signal="enemy_died" from="EnemyStats" to="." method="_on_EnemyStats_enemy_died"]

[editable path="Hurtbox"]
