[gd_scene load_steps=3 format=2]

[ext_resource path="res://UI/MissilesUI.tscn" type="PackedScene" id=2]
[ext_resource path="res://Menus/PauseMenu.tscn" type="PackedScene" id=3]

[node name="UI" type="CanvasLayer"]

[node name="MissilesUI" parent="." instance=ExtResource( 2 )]
margin_left = 4.0
margin_top = 19.0
margin_right = 21.0
margin_bottom = 29.0

[node name="PauseMenu" parent="." instance=ExtResource( 3 )]
visible = false
